<?xml version="1.0" encoding="UTF-8" standalone="no"?>
<!-- Created with Inkscape (http://www.inkscape.org/) -->

<svg
   xmlns:dc="http://purl.org/dc/elements/1.1/"
   xmlns:cc="http://creativecommons.org/ns#"
   xmlns:rdf="http://www.w3.org/1999/02/22-rdf-syntax-ns#"
   xmlns:svg="http://www.w3.org/2000/svg"
   xmlns="http://www.w3.org/2000/svg"
   xmlns:sodipodi="http://sodipodi.sourceforge.net/DTD/sodipodi-0.dtd"
   xmlns:inkscape="http://www.inkscape.org/namespaces/inkscape"
   width="12.699861mm"
   height="8.0782642mm"
   viewBox="0 0 12.699861 8.0782643"
   version="1.1"
   id="svg15329"
   inkscape:version="0.92.5 (0.92.5+68)"
   sodipodi:docname="Container.svg">
  <defs
     id="defs15323" />
  <sodipodi:namedview
     id="base"
     pagecolor="#ffffff"
     bordercolor="#666666"
     borderopacity="1.0"
     inkscape:pageopacity="0.0"
     inkscape:pageshadow="2"
     inkscape:zoom="10.986217"
     inkscape:cx="20.240775"
     inkscape:cy="11.200382"
     inkscape:document-units="mm"
     inkscape:current-layer="layer1"
     showgrid="false"
     showguides="true"
     inkscape:guide-bbox="true"
     fit-margin-top="0"
     fit-margin-left="0"
     fit-margin-right="0"
     fit-margin-bottom="0">
    <inkscape:grid
       type="xygrid"
       id="grid19925"
       originx="-86.674228"
       originy="-238.22437" />
  </sodipodi:namedview>
  <metadata
     id="metadata15326">
    <rdf:RDF>
      <cc:Work
         rdf:about="">
        <dc:format>image/svg+xml</dc:format>
        <dc:type
           rdf:resource="http://purl.org/dc/dcmitype/StillImage" />
        <dc:title></dc:title>
      </cc:Work>
    </rdf:RDF>
  </metadata>
  <g
     inkscape:label="Ebene 1"
     inkscape:groupmode="layer"
     id="layer1"
     transform="translate(-86.674225,-50.697364)">
    <path
       style="fill:#000000;stroke-width:0.05039635"
       d="m 90.02558,58.632331 -0.806341,-0.136911 -0.063,-0.03928 -0.063,-0.03928 v -3.674187 -3.674187 l 0.08819,-0.04545 0.08819,-0.04545 0.889289,-0.140111 0.88929,-0.140111 0.08114,0.03114 0.08114,0.03114 -0.0129,3.995376 -0.0129,3.995376 -0.176388,0.0094 -0.176387,0.0094 z m 0.05336,-3.809902 0.09782,-0.07264 -0.05589,-0.09115 -0.05589,-0.09115 h -0.396988 -0.396988 l -0.01745,0.09061 -0.01745,0.09062 0.06073,0.07317 0.06073,0.07317 h 0.311773 0.311774 z m 1.517323,3.919564 -0.0336,-0.0336 V 54.7339 50.759406 l 0.07668,-0.02942 0.07668,-0.02942 1.221028,0.229007 1.221027,0.229007 2.568923,0.485072 2.568921,0.485072 0.03832,0.06027 0.03832,0.06027 7.62e-4,2.50105 7.62e-4,2.501047 -0.06996,0.05806 -0.06995,0.05806 -0.900173,0.172488 -0.900174,0.172488 -2.822195,0.531585 -2.822196,0.531586 -0.07979,-1.7e-5 -0.07979,-1.6e-5 z m 0.977642,-0.87531 0.09748,-0.05217 V 54.743881 51.67325 l -0.103285,-0.05528 -0.103285,-0.05528 -0.136098,0.01571 -0.136098,0.01571 -0.01307,3.099376 -0.01307,3.099377 0.02408,0.063 0.02408,0.06299 h 0.130886 0.130886 z m 1.077335,-0.148323 0.129678,-0.0493 -0.01301,-2.932485 -0.01301,-2.932487 -0.140252,-0.04675 -0.140253,-0.04675 -0.07393,0.02837 -0.07393,0.02837 v 2.966567 2.966569 l 0.0336,0.0336 0.0336,0.0336 h 0.06391 0.06391 z m 0.957124,-0.151035 0.129272,-0.04915 v -2.774294 -2.774294 l -0.125553,-0.04773 -0.125554,-0.04774 -0.07603,0.02918 -0.07603,0.02917 v 2.812607 2.812602 l 0.063,0.02542 0.063,0.02542 0.0093,0.004 0.0093,0.004 0.129271,-0.04915 z m 0.938927,-0.15421 0.09748,-0.05217 V 54.741027 52.12111 l -0.127359,-0.05803 -0.127357,-0.05803 -0.06163,0.06162 -0.06163,0.06163 -0.0056,2.580297 -0.0056,2.580296 0.04514,0.08819 0.04514,0.08819 h 0.05194 0.05194 z m 0.843344,-0.159495 0.06048,-0.06048 V 54.743881 52.29462 l -0.06048,-0.06048 -0.06047,-0.06048 h -0.115911 -0.115912 v 2.536616 2.536617 l 0.0336,0.0336 0.0336,0.0336 h 0.08231 0.08231 z m 0.760357,-0.109081 0.05707,-0.06876 -0.0131,-2.357376 -0.0131,-2.357379 -0.08681,-0.05475 -0.08681,-0.05475 -0.06438,0.06438 -0.06438,0.06438 -0.009,2.277918 -0.009,2.27792 0.02559,0.138589 0.02559,0.138591 h 0.09062 0.09062 z m 0.650741,-0.0925 0.06047,-0.06048 v -2.251586 -2.251585 l -0.07559,-0.06274 -0.0756,-0.06274 -0.07559,0.06274 -0.0756,0.06274 v 2.251585 2.251586 l 0.06048,0.06048 0.06047,0.06048 h 0.03024 0.03024 z m 0.655154,-0.100793 0.06047,-0.06048 v -2.150793 -2.150792 l -0.07495,-0.06221 -0.07495,-0.06221 -0.07624,0.02926 -0.07624,0.02925 v 2.210621 2.210624 l 0.0336,0.03359 0.0336,0.0336 h 0.05712 0.05712 z m 0.584244,-0.120034 0.03059,-0.07971 -7.62e-4,-2.024332 -7.62e-4,-2.024332 -0.04454,-0.07034 -0.04454,-0.07034 -0.08068,0.03096 -0.08068,0.03096 v 2.109828 2.10983 l 0.0336,0.0336 0.0336,0.0336 h 0.0618 0.0618 z m -11.418704,1.390212 -0.840862,-0.141379 -0.05367,-0.03317 -0.05367,-0.03317 V 54.747079 51.48046 l 0.063,-0.04962 0.063,-0.04962 0.86397,-0.137141 0.863969,-0.137142 0.118759,0.0168 0.11876,0.0168 0.0139,3.502547 0.01389,3.502546 -0.02745,0.113391 -0.02745,0.113392 -0.13763,-0.0048 -0.13763,-0.0048 z m 0.813655,-3.399522 0.06073,-0.07317 -0.01745,-0.09062 -0.01745,-0.09061 h -0.396988 -0.396988 l -0.05297,0.08397 -0.05297,0.08397 0.06624,0.07982 0.06624,0.07982 h 0.340432 0.340433 z"
       id="path19955"
       inkscape:connector-curvature="0" />
  </g>
</svg>
